2G.IUGFS. 3.87343
AE.113A. 3.06955
AE.319A. 3.08903
AE.U15A. 3.3252
AE.W13A. 3.78027
AE.X16A. 3.66103
AE.X18A. 2.58849
AE.Y14A. 3.31456
AI.BELA. 2.99348
AI.BELA.02 2.00669
AI.BELA.04 2.07763
AI.BELA.06 2.05298
AI.DSPA.02 12.0032
AI.DSPA.04 12.0317
AI.DSPA.06 11.9822
AI.ESPZ. 3.88701
AI.ESPZ.04 4.58632
AI.ESPZ.06 4.57612
AI.JUBA.02 5.59939
AI.JUBA.04 5.69057
AI.JUBA.06 5.5865
AI.SMAI. 5.40804
AI.SMAI.02 5.23696
AI.SMAI.04 5.1926
AI.SMAI.06 5.19925
AK.ANM. 3.45566
AK.ATKA. 3.52707
AK.BAGL. 4.90004
AK.BAL. 2.59097
AK.BARK. 6.14386
AK.BARN. 4.27059
AK.BCP. 4.98826
AK.BERG. 4.33535
AK.BESE. 6.89197
AK.BGLC. 6.21655
AK.BMR. 3.48864
AK.BPAW. 3.80786
AK.BRLK. 4.49317
AK.BWN. 7.34523
AK.CAST. 6.12725
AK.CCB. 3.64768
AK.CHI. 8.35925
AK.CHUM. 8.62392
AK.CNP. 1.99427
AK.COLD. 2.61158
AK.CRQ. 5.88519
AK.CTG. 4.59426
AK.DCPH. 6.15751
AK.DHY. 5.09771
AK.DIV. 2.95615
AK.DOT. 6.24666
AK.EYAK. 3.48535
AK.FALS. 7.8065
AK.FIB. 6.16193
AK.FID. 2.26669
AK.FYU. 5.03415
AK.GAMB. 5.02529
AK.GCSA. 2.43272
AK.GHO. 5.27948
AK.GLI. 2.15309
AK.GOAT. 7.90653
AK.GRIN. 4.94935
AK.GRNC. 3.67775
AK.HARP. 3.75753
AK.HDA. 6.06941
AK.HIN. 6.53439
AK.HMT. 7.24453
AK.HOM. 3.74684
AK.ISLE. 5.79629
AK.JIS. 2.42382
AK.KAI. 11.8088
AK.KHIT. 3.79035
AK.KIAG. 2.85091
AK.KLU. 2.37867
AK.KNK. 2.95102
AK.KTH. 3.04913
AK.KULT. 4.05307
AK.LOGN. 3.26065
AK.MCAR. 4.439
AK.MCK. 2.05957
AK.MDM. 4.09273
AK.MESA. 6.15134
AK.MLY. 1.38619
AK.NICH. 7.75643
AK.NIKH. 8.28148
AK.PAX. 5.74304
AK.PIN. 4.64193
AK.PNL. 4.15487
AK.PPD. 5.27667
AK.PPLA. 2.53867
AK.PTPK. 4.1787
AK.PWL. 3.39153
AK.RAG. 9.02649
AK.RC01. 3.75944
AK.RDOG. 4.56629
AK.RIDG. 3.67601
AK.RKAV. 4.66062
AK.RND. 3.08953
AK.SAMH. 4.97485
AK.SAW. 2.65844
AK.SCM. 1.43321
AK.SCRK. 1.85947
AK.SGA. 11.0346
AK.SII. 7.79961
AK.SKN. 5.20329
AK.SPIA. 5.53845
AK.SSN. 4.79708
AK.SSP. 6.58856
AK.SUCK. 7.55598
AK.SWD. 3.00003
AK.TABL. 3.93303
AK.TGL. 6.06939
AK.TNA. 3.10329
AK.TRF. 4.796
AK.UNV. 4.06437
AK.VRDI. 3.55251
AK.WAT1. 3.28926
AK.WAX. 4.57881
AK.WRH. 4.16554
AK.YAH. 3.39642
AT.AKUT. 6.18866
AT.CHGN. 7.5201
AT.CRAG. 3.52688
AT.MENT. 4.95333
AT.MID. 7.07587
AT.OHAK. 5.98169
AT.SDPT. 6.09842
AT.SKAG. 3.75976
AT.SVW2. 5.04099
AT.TTA. 4.02655
AT.YKU2. 8.49513
AU.ARMA. 3.06494
AU.AS31. 14.5001
AU.BBOO. 2.24504
AU.BLDU. 2.07432
AU.CMSA. 3.07695
AU.CNB. 2.03949
AU.COEN. 3.26955
AU.CTA. 5.56699
AU.EIDS. 2.61813
AU.FITZ. 0.902898
AU.FORT. 3.77071
AU.GIRL. 3.36115
AU.HTT. 5.39565
AU.KDU. 2.44789
AU.KMBL. 3.56623
AU.KNRA. 3.82465
AU.LHI. 6.30124
AU.MANU. 4.98786
AU.MAW. 4.57544
AU.MCQ. 8.99578
AU.MEEK. 2.94232
AU.MILA. 4.16635
AU.MOO. 3.41951
AU.MORW. 2.4417
AU.MTN. 1.68444
AU.MULG. 4.9523
AU.MUN. 2.06925
AU.NWAO. 2.79753
AU.OOD. 2.54443
AU.PSA00.00 6.6353
AU.PSAA1.00 7.46396
AU.PSAA2.00 8.12885
AU.PSAA3.00 6.74044
AU.PSAB1.00 7.54271
AU.PSAB2.00 6.75083
AU.PSAB3.00 7.50253
AU.PSAC1.00 6.77075
AU.PSAC2.00 8.66111
AU.PSAC3.00 8.89715
AU.PSAD1.00 6.31319
AU.PSAD2.00 10.0477
AU.PSAD3.00 6.42282
AU.QIS. 1.39104
AU.QLP. 3.46014
AU.RABL. 4.44419
AU.RIV. 6.48516
AU.STKA. 4.54209
AU.TOO. 3.06564
AU.WB2. 7.15061
AU.WRKA. 2.84328
AU.XMI. 4.61792
AU.XMIS. 3.94575
AU.YNG. 2.75074
AV.AKBB. 13.5669
AV.AKGG. 11.449
AV.AKLV. 12.4765
AV.AKMO. 10.8338
AV.AKRB. 13.4209
AV.AKSA. 12.6789
AV.AKV. 7.24972
AV.AMKA. 7.50761
AV.ANCK. 7.39396
AV.AUL. 11.5271
AV.ILS. 9.90726
AV.ILW. 32.1984
AV.ISLZ. 10.6261
AV.IVE. 12.6056
AV.KABU. 12.7457
AV.KAKN. 12.3011
AV.LVA. 5.19057
AV.MAPS. 12.5441
AV.MCIR. 6.91258
AV.MGOD. 13.0164
AV.MNAT. 13.1767
AV.MSW. 12.185
AV.MTBL. 6.46681
AV.NCT. 12.4988
AV.OKCE. 10.5454
AV.OKFG. 11.1411
AV.OKNC. 11.4555
AV.OKSO. 13.9295
AV.RDDF. 11.9025
AV.RDJH. 11.3443
AV.RDSO. 12.2924
AV.RDWB. 11.5486
AV.RED. 11.7541
AV.SPBG. 9.05266
AV.SPCG. 10.5729
AV.SPCN. 12.3614
AV.SPCP. 11.9273
AV.SPCR. 11.4794
AV.SPNN. 11.7942
AV.SSBA. 12.4061
AV.SSLN. 12.1314
AV.SSLS. 9.87461
AV.WACK. 6.25253
AV.WECS. 10.2905
AZ.BZN. 7.19624
AZ.CPE. 2.75991
AZ.CRY. 5.29646
AZ.FRD. 5.17042
AZ.HWB. 9.83813
AZ.KNW. 5.44517
AZ.LVA2. 5.76415
AZ.MONP2. 2.63217
AZ.PFO. 5.2642
AZ.RDM. 5.85406
AZ.RRSP. 3.16975
AZ.SCI2. 12.389
AZ.SMER. 6.08726
AZ.SND. 6.4107
AZ.SOL. 7.61511
AZ.TMSP. 5.72863
AZ.TRO. 6.47553
AZ.WMC. 6.40758
BC.CBX. 9.71999
BC.CCX. 6.08101
BC.CPX. 10.3809
BC.PIX. 6.7613
BC.RMX. 8.64768
BC.SFX. 7.4425
BC.SJX. 7.82459
BC.SPX. 5.54699
BC.TJX. 6.7747
BC.TKX. 8.9906
BC.UABX. 8.18365
BC.VTX. 9.31425
BK.CMB.00 2.06535
BK.HUMO.00 0.819725
BK.MCCM.00 2.67562
BK.SAO.00 2.54929
BK.WDC.00 1.48557
C.GO05. 2.87088
C.GO06. 2.26398
C.GO07. 4.97311
C.GO08. 3.55786
C.GO09. 4.02058
C.GO10. 5.70512
CB.CN2.00 5.41669
CB.DL2.00 5.61229
CB.GYA.00 4.18218
CB.GZH.00 4.30473
CB.HEH.00 4.51712
CB.LYN.00 5.28542
CB.NJ2.00 7.38633
CB.SNY.00 5.1556
CB.TIA.00 5.53467
CB.WHN.00 3.01534
CB.XLT.00 3.43445
CC.ASBU. 5.31994
CC.CIHL. 6.80916
CC.CPCO. 7.241
CC.NORM. 7.32982
CC.OBSR. 10.5331
CC.PANH. 12.4423
CC.PRLK. 11.2894
CC.STD. 11.9
CC.SWFL. 13.8856
CC.SWNB. 5.05596
CC.TCBU. 9.97266
CC.TMBU. 6.20586
CC.VALT. 12.1904
CC.WIFE. 9.24954
CI.ADO. 3.81374
CI.ARV. 3.78649
CI.BAK. 7.39165
CI.BAR. 3.35827
CI.BBR. 4.02174
CI.BC3. 4.40062
CI.BEL. 4.16534
CI.BFS. 2.76548
CI.CHF. 2.5166
CI.CIA. 4.4747
CI.CWC. 3.81571
CI.DAN. 5.14032
CI.DEC. 4.41687
CI.DGR. 2.87501
CI.DJJ. 4.03295
CI.EDW2. 2.19255
CI.FMP. 3.63788
CI.FUR. 3.12324
CI.GLA. 2.73621
CI.GMR. 2.61704
CI.GRA. 4.33548
CI.GSC. 3.15273
CI.HEC. 3.83009
CI.IKP. 5.43945
CI.IRM. 3.77112
CI.ISA. 2.47412
CI.LGU. 3.8769
CI.LRL. 5.06887
CI.MLAC. 3.87952
CI.MPM. 3.33171
CI.MPP. 4.53234
CI.MUR. 3.9339
CI.MWC. 4.78074
CI.NEE2. 3.32032
CI.OSI. 2.49386
CI.PASC.00 1.86771
CI.PASC.10 1.9933
CI.PDM. 2.14034
CI.PHL. 3.47934
CI.PLM. 4.74139
CI.RCT. 10.2345
CI.RPV. 4.54506
CI.RRX. 4.41963
CI.RSS. 11.7756
CI.SBC. 3.73848
CI.SCI2. 7.52972
CI.SCZ2. 4.59532
CI.SDD. 4.80629
CI.SHO. 3.37615
CI.SLA. 5.99499
CI.SMM. 4.16199
CI.SNCC. 5.0612
CI.SVD. 5.74663
CI.SWS. 3.29857
CI.TIN. 4.42295
CI.TUQ. 4.32391
CI.USC. 6.49981
CI.VCS. 4.06734
CI.VES. 4.46564
CI.VOG. 3.6532
CI.VTV. 7.37711
CN.BBB. 4.46692
CN.BVCY. 5.0777
CN.DAWY. 3.65626
CN.DIB. 3.01995
CN.INK. 4.47039
CN.LLLB. 1.44198
CN.NAB1. 3.01657
CN.NBC1. 4.22618
CN.NBC2. 2.76752
CN.NBC3. 2.34378
CN.NBC4. 2.94333
CN.NBC5. 3.13998
CN.NBC6. 2.53232
CN.NBC7. 5.86393
CN.PNT. 2.2484
CN.VIB. 5.70757
CN.WALA. 5.81333
CN.WHY. 2.47731
CN.YUK2. 3.56592
CN.YUK3. 2.56448
CN.YUK4. 3.24999
CN.YUK5. 4.31188
CN.YUK6. 3.99329
CN.YUK7. 3.91869
CN.YUK8. 3.26985
EP.CACH. 13.2755
EP.CHC4. 12.5083
EP.JICH. 12.7948
EP.KIDD. 3.31132
EP.PACH. 12.9259
EP.SACH. 11.9081
EP.SGCH. 11.8123
ER.CON. 9.13539
ER.E1S. 13.3546
ER.HOO. 10.7167
ER.ICE. 3.233
ER.LEH. 7.98109
ER.NKB. 8.18384
G.CAN.00 1.08149
G.CCD.00 2.63019
G.CCD.10 3.29215
G.COYC.00 1.77993
G.COYC.10 2.31934
G.DRV.00 2.20266
G.INU.00 1.53362
G.KIP.00 1.59095
G.KIP.10 1.47805
G.TAOE.00 5.52164
G.UNM.00 2.5194
GE.BKB. 4.33061
GE.BKNI. 3.81696
GE.BNDI. 4.99508
GE.CISI. 4.93999
GE.FAKI. 5.00283
GE.GENI. 5.79757
GE.GSI. 5.08017
GE.JAGI. 1.95936
GE.LUWI. 4.59181
GE.MMRI. 2.6889
GE.MNAI. 4.34469
GE.PLAI. 2.76109
GE.PMBI. 6.36301
GE.PMG.00 2.61383
GE.PMG.10 11.4358
GE.SANI. 3.73304
GE.SAUI. 9.14494
GE.SMRI. 6.55311
GE.SOEI. 6.06452
GE.TNTI. 4.10055
GE.TOLI. 4.53409
GE.TOLI2. 3.37644
GE.UGM. 1.76309
GI.CHIE. 6.77936
GI.HUEH. 6.49486
GI.IZAB. 10.5823
GI.PETF. 6.74199
GI.RETA. 5.30077
GT.PLCA.00 1.57641
GT.VNDA.00 1.05646
HK.HKPS. 0.910985
HK.HKPS.00 0.937433
HV.AIND. 5.83305
HV.BYL. 10.3652
HV.DEVL. 8.31849
HV.HAT. 11.7734
HV.HLPD. 6.42419
HV.HSSD. 6.7755
HV.HUAD. 6.69948
HV.JCUZ. 11.8382
HV.JOKA. 8.05653
HV.KKO. 8.67654
HV.MLOD. 3.78808
HV.MOKD. 8.91849
HV.NPOC. 12.0244
HV.NPT. 8.65929
HV.OBL. 9.93132
HV.PAUD. 7.67845
HV.RIMD. 6.88728
HV.RSDD. 12.9138
HV.SBL. 8.80653
HV.SDH. 8.85073
HV.STC. 29.6439
HV.STCD. 7.0555
HV.UWB. 12.1151
HV.UWE. 5.60877
HV.WRM. 10.1057
IA.AAI. 3.43196
IA.AAII.00 4.56027
IA.ABJI. 9.4431
IA.ALKI. 3.49165
IA.APSI. 4.9519
IA.ATNI. 5.97756
IA.BAKI. 6.14371
IA.BASI. 6.02091
IA.BATI. 4.39809
IA.BBKI. 7.59882
IA.BBSI. 5.94095
IA.BJI. 3.39357
IA.BKSI. 1.97554
IA.BLJI. 5.15256
IA.BLSI. 4.69718
IA.BNSI. 4.25417
IA.BSSI. 6.1584
IA.BWJI. 8.97865
IA.BYJI. 4.48099
IA.CBJI. 6.21915
IA.CGJI. 4.33783
IA.CMJI. 3.67744
IA.CNJI. 5.3706
IA.CTJI. 5.19147
IA.DBJI. 8.41255
IA.DBNI. 6.61513
IA.DNP. 7.74696
IA.DSRI. 7.28055
IA.EDFI. 4.97526
IA.EGSI. 7.11595
IA.GLMI. 6.59919
IA.GMJI. 2.94645
IA.GRJI. 8.50674
IA.GTOI.00 5.05819
IA.IGBI.00 2.94947
IA.JAY. 5.35133
IA.JCJI. 4.75213
IA.JMBI.00 6.65519
IA.KASI. 1.95146
IA.KBKI. 4.61634
IA.KDI. 4.62744
IA.KHK. 3.11985
IA.KKSI. 6.50251
IA.KLI. 6.19233
IA.KLNI. 5.31049
IA.KLSI.00 6.17093
IA.KMMI. 4.93259
IA.KMPI. 10.0119
IA.KMSI. 6.25719
IA.KPJI. 7.72558
IA.KRAI. 6.14766
IA.KRJI. 5.66138
IA.KRK. 5.1271
IA.KSI. 6.08963
IA.LBFI.00 6.47976
IA.LBMI. 3.38798
IA.LEM. 4.31738
IA.LHSI. 5.24569
IA.LRTI. 7.072
IA.LWLI. 10.0032
IA.MASI. 7.68214
IA.MDSI. 3.78014
IA.MGAI. 3.55897
IA.MKBI. 4.87156
IA.MMPI. 8.35601
IA.MMSI.00 4.83718
IA.MNI. 4.98096
IA.MNSI. 5.5013
IA.MPSI. 4.86403
IA.MRSI. 3.57919
IA.MSAI. 5.50481
IA.MTKI. 7.24851
IA.MWPI.00 4.29378
IA.NBPI. 5.917
IA.NGJI. 6.00215
IA.NLAI. 6.57996
IA.OBMI. 6.17376
IA.PBKI. 8.60015
IA.PBSI. 5.99564
IA.PCI. 6.40786
IA.PCJI. 5.41165
IA.PDSI. 3.32073
IA.PKKI. 7.41863
IA.PMSI. 8.80874
IA.PPBI. 5.13462
IA.PPI. 4.83287
IA.PPSI. 7.66031
IA.PSI. 1.5797
IA.PTKI. 10.1578
IA.PWJI. 4.56764
IA.RAPI. 3.64338
IA.RGRI. 3.5012
IA.RKPI. 8.74421
IA.RPSI. 4.74779
IA.RTBI. 3.97522
IA.SBJI. 8.11554
IA.SBSI. 7.64112
IA.SCJI. 6.49161
IA.SDSI. 9.84743
IA.SGKI. 5.53389
IA.SGSI. 4.37616
IA.SIJI. 6.69649
IA.SISI. 6.29831
IA.SKJI. 3.36018
IA.SLSI. 6.19613
IA.SMKI. 5.49207
IA.SMPI. 5.78465
IA.SMSI. 3.79229
IA.SNJI. 11.0427
IA.SPSI. 6.62772
IA.SRBI. 4.90904
IA.SRPI. 7.32941
IA.STKI. 5.72023
IA.SWI. 4.37902
IA.SWJI. 6.57396
IA.TARAI. 10.4298
IA.TBJI. 3.55576
IA.TLE2. 4.6397
IA.TMSI. 5.86842
IA.TNG. 5.59332
IA.TNGI.00 4.35843
IA.TPI. 2.79647
IA.TPRI. 6.51324
IA.TRSI. 6.36127
IA.TSI. 6.08256
IA.TTSI. 4.01084
IA.TWSI. 6.58368
IA.UBSI. 3.95582
IA.UWJI. 7.95319
IA.WAMI. 6.09047
IA.WBSI. 5.44689
IA.WOJI. 5.81445
IA.WSI. 7.22842
IA.YOGI.00 3.33552
IC.BJT.00 1.78331
IC.BJT.10 1.60648
IC.ENH.00 1.32272
IC.ENH.10 2.63096
IC.HIA.00 1.77567
IC.HIA.10 1.3239
IC.MDJ.00 1.71982
IC.MDJ.10 1.45283
IC.QIZ.00 1.35859
IC.QIZ.10 1.17825
IC.SSE.00 1.55878
IC.SSE.10 2.4922
IC.XAN.00 1.56581
IC.XAN.10 1.41995
II.COCO.00 7.37879
II.COCO.10 7.73893
II.ERM.00 2.26167
II.ERM.10 2.71993
II.IASL.BH 1.76337
II.KAPI.00 1.45
II.KAPI.10 1.72155
II.KDAK.00 2.76889
II.KDAK.10 1.44343
II.KWAJ.00 7.62665
II.KWAJ.10 7.6026
II.PFO.00 2.50266
II.PFO.10 1.81313
II.RPN.00 3.77279
II.RPN.10 3.69285
II.TAU.00 1.87294
II.TAU.10 3.53646
II.WRAB.00 0.761896
II.WRAB.10 4.96924
II.XPFO.00 2.30973
II.XPFO.10 2.26597
IM.IL31. 19.9125
IM.NV31. 2.76878
IM.PD31. 21.5322
IM.TX31. 0.850246
IM.TX32. 22.0383
IU.ADK.00 4.14579
IU.ADK.10 4.09956
IU.ANMO.00 1.14455
IU.ANMO.10 0.983769
IU.BILL.00 4.88432
IU.CASY.00 2.131
IU.CASY.10 2.13314
IU.COLA.00 1.03374
IU.COLA.10 2.91204
IU.COR.00 2.2462
IU.COR.10 2.10546
IU.CTAO.00 1.40075
IU.CTAO.10 1.3548
IU.DAV.00 3.88904
IU.DAV.10 5.25459
IU.GUMO.00 2.87193
IU.GUMO.10 3.31395
IU.HKT.00 3.84825
IU.HKT.10 4.19398
IU.INCN.00 2.71662
IU.INCN.10 2.44977
IU.JOHN.00 5.45606
IU.JOHN.10 10.8182
IU.KIP.00 1.57472
IU.KIP.10 1.46701
IU.KIP.60 1.48247
IU.MA2.00 2.16383
IU.MA2.10 2.42884
IU.MAJO.00 1.33435
IU.MAJO.10 1.41643
IU.MBWA.00 0.954325
IU.MBWA.10 2.67011
IU.MIDW.00 5.48562
IU.NWAO.00 1.08849
IU.NWAO.10 4.08406
IU.PAYG.00 1.03227
IU.PAYG.10 2.24637
IU.PET.00 1.51068
IU.PMG.00 2.95984
IU.PMG.10 3.26906
IU.PMSA.00 4.09471
IU.PMSA.10 3.73765
IU.POHA.00 0.949394
IU.POHA.10 4.78855
IU.PTCN.00 8.5916
IU.PTCN.01 8.54757
IU.QSPA.00 1.23114
IU.QSPA.10 0.602568
IU.QSPA.60 8.04874
IU.QSPA.70 0.787638
IU.RSSD.00 0.815341
IU.RSSD.10 3.56243
IU.SBA.00 4.18722
IU.SLBS.00 2.41664
IU.SLBS.10 2.39062
IU.TATO.00 0.847648
IU.TATO.10 4.70765
IU.TUC.00 1.77001
IU.TUC.10 1.37228
IU.TUC.60 1.40762
IU.WAKE.00 7.28547
IU.WAKE.10 7.68
IU.XMAS.00 12.0685
IU.XMAS.10 5.17775
IU.YSS.00 3.60041
IW.DLMT. 5.19784
IW.FLWY. 2.42607
IW.FXWY. 1.7105
IW.IMW. 3.65276
IW.LOHW. 2.89949
IW.MFID.00 3.84789
IW.MOOW. 1.91183
IW.PHWY. 3.84278
IW.PLID. 1.59136
IW.REDW.00 2.77666
IW.RWWY. 3.99858
IW.SMCO. 3.6787
IW.SNOW. 4.16221
IW.TPAW. 3.61299
JP.ASAJ. 4.5118
JP.CBIJ. 4.23973
JP.JCJ. 4.88519
JP.JEM. 3.346
JP.JEW. 3.59513
JP.JGF. 3.28669
JP.JHJ2. 5.4301
JP.JHS. 3.66856
JP.JKA. 4.40302
JP.JMM. 4.12286
JP.JMN. 4.68662
JP.JMZ. 4.09302
JP.JNU. 3.25444
JP.JOW. 5.02344
JP.JSD. 3.97248
JP.JSG. 3.75171
JP.JSU. 4.63179
JP.JTM. 4.41065
JP.JTU. 3.20263
JP.JWT. 3.55289
JP.JYT. 3.87576
KG.TJN. 11.2145
KS.BUS2. 1.9626
KS.CHJ2. 2.47218
KS.NAWB. 4.00037
KS.SEHB. 3.14752
KS.SEO2. 5.1056
LB.BMN. 4.38375
LB.DAC. 3.87014
LB.MVU. 6.71972
LB.TPH. 3.61936
LI.LTH. 4.04891
MB.JTMT. 0.968507
MG.JRQG. 4.97374
MI.ANA2. 11.6316
MI.ANLB. 11.3126
MI.ANNE. 12.3508
MI.ANSV. 11.4271
MI.ANSW. 11.1683
MI.DPS. 5.73626
MI.FLX. 7.45887
MI.GOLF. 9.69215
MI.HTSP. 10.4854
MI.PGBF. 10.5009
MI.PGNK. 12.2789
MI.PGNW. 11.9427
MI.PGR2. 12.1014
MI.PGSE. 13.584
MI.PGWW. 12.4219
MI.SARN. 12.2288
MS.BTDF. 2.60956
MX.CCIG. 3.37368
MX.HPIG. 5.64275
MX.HSIG. 1.6542
MX.MOIG. 4.40905
MX.SRIG. 4.53051
MX.TLIG. 1.72914
MX.ZAIG. 3.47732
MY.IPM. 3.61557
MY.KKM. 5.79188
MY.KOM. 4.51411
MY.KSM. 3.15566
MY.KUM. 3.09211
MY.LDM. 4.63137
MY.SBM. 5.35794
NN.BEK. 4.5544
NN.EMB. 9.89954
NN.GMN. 7.73418
NN.GWY. 8.08002
NN.KVN. 1.91303
NN.LCH. 5.50994
NN.LHV. 3.56955
NN.MOHS. 10.2004
NN.MPK. 5.66386
NN.OMMB. 2.52287
NN.PAH. 2.30015
NN.PNT. 2.72517
NN.PRN. 3.60485
NN.QSM. 7.67517
NN.REDF. 5.39828
NN.RUB. 3.11053
NN.RYN. 3.37697
NN.SHP. 1.43687
NN.UNVG. 7.59389
NN.VCN. 2.85093
NN.WAK. 2.5943
NN.WTNK. 5.66448
NN.YER. 4.53503
NU.CRIN. 7.45852
NU.CSGN. 9.43822
NV.KEMF. 20.0211
NV.NC27. 5.90685
NV.NC89. 8.03804
NV.NCBC. 10.8732
NV.NCHR. 23.5839
NX.STN01. 4.45241
NX.STN02. 4.48535
NX.STN03. 4.26925
NX.STN04. 4.32863
NX.STN05. 4.63838
NX.STN06. 4.02764
NX.STN07. 4.35722
NX.STN08. 4.01535
NX.STN09. 4.49307
NX.STN10. 4.43561
NX.STN11. 4.53271
NX.STN12. 4.17517
NX.STN13. 4.06961
NX.STN14. 4.99232
NX.STN15. 4.47166
NX.STN16. 4.55702
NX.STN17. 4.67416
NX.STN18. 4.04041
NX.STN19. 4.09667
NX.STN20. 4.57086
NX.STN21. 4.18656
NX.STN22. 4.01162
NX.STN23. 4.77986
NX.STN24. 3.96963
NX.STN26. 4.80284
NX.STN31. 4.05467
NX.STN32. 4.82683
NX.STN33. 4.09154
NX.STN34. 4.35432
NX.STN35. 4.44049
NZ.ODZ.10 2.99559
NZ.RPZ.10 2.40692
OK.BCOK. 6.71483
OK.FNO.01 5.35961
OK.OKCFA. 12.1538
OK.U32A. 4.24784
OK.W35A. 4.8686
OK.X34A. 9.91781
OK.X37A. 2.34041
PB.B001. 16.7488
PB.B003. 16.6155
PB.B004. 16.7805
PB.B005. 16.9868
PB.B006. 16.5263
PB.B007. 16.5426
PB.B009. 17.0022
PB.B010. 16.8796
PB.B011. 16.7258
PB.B012. 17.18
PB.B013. 18.0357
PB.B014. 17.548
PB.B017. 16.9087
PB.B018. 16.5549
PB.B019. 18.4991
PB.B020. 18.8724
PB.B022. 17.0034
PB.B023. 19.1764
PB.B024. 17.0879
PB.B026. 16.883
PB.B027. 18.6248
PB.B028. 16.8746
PB.B030. 17.566
PB.B031. 20.9238
PB.B032. 17.575
PB.B033. 17.6947
PB.B035. 17.3194
PB.B036. 17.1229
PB.B039. 18.0608
PB.B040. 18.2084
PB.B045. 17.9115
PB.B046. 17.5558
PB.B047. 17.6762
PB.B049. 18.2312
PB.B054. 18.6372
PB.B057. 18.6704
PB.B058. 17.8897
PB.B065. 16.9092
PB.B066. 17.1909
PB.B067. 18.0559
PB.B072. 17.184
PB.B073. 17.1414
PB.B075. 17.2392
PB.B076. 16.9404
PB.B078. 18.0725
PB.B079. 17.1528
PB.B081. 17.0691
PB.B082. 16.9629
PB.B082A. 5.66424
PB.B084. 17.3407
PB.B086. 20.5846
PB.B086A. 3.55559
PB.B087. 17.7717
PB.B088. 17.2881
PB.B088A. 3.34845
PB.B093. 17.9573
PB.B201. 18.1405
PB.B202. 16.7106
PB.B203. 17.2389
PB.B204. 17.0357
PB.B205. 18.8533
PB.B206. 16.5984
PB.B207. 16.6883
PB.B208. 18.015
PB.B900. 17.3106
PB.B901. 17.2281
PB.B916. 17.8565
PB.B917. 19.6019
PB.B918. 19.2481
PB.B921. 18.4844
PB.B926. 18.5391
PB.B927. 17.7692
PB.B928. 17.6659
PB.B932. 18.8363
PB.B933. 19.0189
PB.B934. 23.4539
PB.B935. 17.0996
PB.B941. 18.7447
PB.B943. 18.4702
PB.B944. 18.8994
PB.B945. 18.2798
PB.B946. 16.8338
PO.VI01. 83.7375
PO.VI03. 85.4877
PO.VI30. 97.813
PO.VI31. 14.1481
PO.VI52. 4.41993
PO.VI56. 12.2819
PO.VW01. 7.02316
PO.VW02. 10.9068
PS.BAG. 2.10717
PS.MCSJ. 5.23728
PS.OGS. 4.77145
PS.PATS. 6.34463
PS.PSI. 3.76549
PS.TSK. 2.24405
RM.DLV. 4.81635
RM.SLV. 1.7008
RM.SZP. 4.78273
S.AUALB. 13.7597
S.AUBUS. 13.905
S.AUDAR. 15.4094
S.AUDCS. 13.8991
S.AUHPC. 13.892
S.AUKHS. 16.0177
S.AUKSC. 14.2758
S.AULRC. 15.7246
S.AUMAG. 14.1743
S.AUMHS. 14.8817
S.AUMTC. 14.2451
S.AUMTS. 14.2404
S.AUPHS. 13.0415
S.AURSC. 14.4515
S.AUSIS. 12.1951
S.AUSMG. 18.3099
SC.SRGE. 5.39914
SC.Y22A. 3.02765
SS.DAL. 9.97974
SS.SAIP.02 10.5345
SV.CNCH. 3.96177
SV.MTO3. 5.99577
SV.PACA. 11.4205
SV.SNET. 6.59356
TA.109C. 2.75991
TA.121A. 2.61675
TA.214A. 2.57531
TA.435B. 2.6178
TA.833A. 3.07356
TA.A04D. 3.84448
TA.ABTX. 3.64451
TA.B05D. 2.795
TA.C06D. 3.22866
TA.D03D. 1.93809
TA.D04E. 3.99159
TA.E04D. 3.24433
TA.EPYK. 2.70121
TA.F04D. 4.87407
TA.F05D. 3.6236
TA.G03D. 3.86318
TA.G05D. 3.00414
TA.H04D. 3.9156
TA.H17A. 4.1636
TA.I02D. 2.9366
TA.I03D. 3.72997
TA.I04A. 2.29412
TA.I05D. 2.8605
TA.J01E. 3.97539
TA.J04D. 5.8874
TA.J05D. 3.51065
TA.K02D. 2.40912
TA.K04D. 3.15391
TA.K22A. 3.42869
TA.KSCO. 4.54536
TA.L02E. 2.52319
TA.L04D. 2.51383
TA.M02C. 2.29345
TA.M04C. 3.29363
TA.MSTX. 3.83175
TA.N02D. 2.8731
TA.N23A. 3.03343
TA.O02D. 3.22132
TA.O03E. 3.24793
TA.O20A. 3.06705
TA.POKR. 2.12585
TA.POKR.01 1.00615
TA.Q24A. 4.72877
TA.R11A. 2.81956
TA.S22A. 2.90869
TA.T25A. 3.29011
TA.TCOL. 2.45252
TA.TOLK. 1.78035
TA.TOLK.01 1.39602
TA.TPFO. 3.23251
TA.TUL1. 2.47457
TA.W18A. 2.7714
TA.WHTX. 4.42609
TA.Y12C. 2.67735
TA.Y22D. 3.51889
TD.TD001. 5.12759
TM.CHBT. 8.23384
TM.NONG. 11.9358
TM.PANO. 6.60861
TM.SKLT. 6.03264
TM.UBPT. 5.70284
TW.KMNB. 2.27798
TW.NACB. 1.04107
TW.SSLB. 2.37994
TW.TPUB. 3.0949
TW.TWGB. 2.97363
TW.YHNB. 1.40783
TW.YULB. 1.2675
UO.BUCK. 3.44422
UO.DBO. 3.35417
UO.PINE. 2.53333
US.AHID.00 6.77602
US.AMTX.00 5.65335
US.BMO.00 4.19841
US.BOZ.00 2.43404
US.BW06.00 3.38926
US.CBKS.00 3.23642
US.DGMT.00 4.34428
US.DGMT.10 4.29688
US.DUG.00 0.953727
US.EGAK.00 2.47762
US.EGMT.00 5.68017
US.ELK.00 0.854393
US.HAWA.00 2.07506
US.HLID.00 1.93355
US.HWUT.00 1.48269
US.ISCO.00 0.943834
US.JCT.00 2.49403
US.KVTX.00 5.86166
US.LAO.00 5.42951
US.LKWY.00 6.3653
US.MNTX.00 2.7713
US.MSO.00 2.5773
US.MVCO.00 3.86541
US.NATX.00 5.26252
US.NEW.00 0.698686
US.NEW.10 0.732283
US.NLWA.00 2.54699
US.OGNE.00 5.05391
US.RLMT.00 3.84252
US.SDCO.00 2.28225
US.TPNV.00 4.17872
US.WMOK.00 4.12473
US.WMOK.10 4.88327
US.WRAK.00 2.76311
US.WRAK.10 2.53339
US.WUAZ.00 2.66442
US.WVOR.00 3.88574
UU.BGU.01 81.31
UU.BRPU.01 80.2323
UU.BSUT.01 81.6734
UU.CCUT.01 3.682
UU.CTU.01 84.7387
UU.CVRU.01 81.7069
UU.HMU.01 87.6883
UU.HVU.01 83.0152
UU.JLU.01 85.4204
UU.KNB.01 83.6777
UU.LCMT.01 80.4639
UU.MPU.01 83.471
UU.MTPU.01 81.9275
UU.NLU.01 85.664
UU.NOQ.01 83.5775
UU.PKCU.01 80.7919
UU.PNSU.01 81.3063
UU.PSUT.01 81.5975
UU.RDMU.01 80.0802
UU.SPU.01 84.6953
UU.SRU.01 2.86489
UU.SZCU.01 83.8995
UU.TCRU.01 80.66
UU.TCU.01 87.084
UU.TMU.01 84.4553
UU.VRUT.01 81.0522
UU.ZNPU.01 81.7017
UW.BABR. 2.62101
UW.BLOW. 1.61781
UW.BRAN. 3.39122
UW.CCRK. 2.821
UW.DAVN. 3.05762
UW.DDRF. 2.92949
UW.DOSE. 1.36831
UW.FISH. 3.58904
UW.FORK. 5.67201
UW.GNW. 3.06662
UW.HEBO. 5.37473
UW.HOOD. 6.50445
UW.IRON. 3.16928
UW.IZEE. 2.96837
UW.JEDS. 3.72031
UW.KENT. 2.28764
UW.LCCR. 2.89667
UW.LEBA. 3.03666
UW.LON. 1.94598
UW.LRIV. 2.54814
UW.LTY. 3.78603
UW.MRBL. 2.6531
UW.OMAK. 2.43976
UW.PASS. 3.66375
UW.PHIN. 2.83464
UW.RADR. 3.28251
UW.RATT. 3.58826
UW.SHUK. 14.7104
UW.SP2. 2.1603
UW.SQM. 9.92201
UW.STOR. 2.02996
UW.TOLT. 2.80496
UW.TREE. 2.94688
UW.TUCA. 3.29034
UW.UMAT. 2.67393
UW.WISH. 6.29869
UW.WOLL. 2.78981
UW.YACT. 3.09686
WY.YFT.01 81.265
WY.YHB.01 83.6821
WY.YHH.01 80.603
WY.YHL.01 82.8896
WY.YMP.01 82.6974
WY.YMR.01 82.1285
WY.YNE.01 85.1587
WY.YNM.01 86.1695
WY.YNR.01 82.7104
WY.YPP.01 83.4828
WY.YTP.01 82.419
WY.YUF.01 85.9167
X4.GC01. 8.42369
X4.GC03. 8.56175
X4.GC04. 8.47543
X4.GC05. 14.2626
X4.GC06. 6.98606
X4.GC07. 11.6692
X4.GC08. 6.76675
X4.GC09. 6.20366
X4.GC10. 6.8041
X4.GC11. 8.37438
X4.GC12. 13.421
X4.GC13. 13.0279
X4.GC14. 6.45967
X4.GC15. 6.23516
X4.GC16. 5.0597
X4.GC17. 6.3611
X4.GC18. 7.98285
X4.GC19. 9.58101
X4.GC20. 12.6616
X4.GC24. 7.08816
Y5.PER. 5.16228
YN.BCCC. 5.55604
YN.GVAR1. 6.55779
YN.JF00. 5.77072
YN.JFN1. 4.92474
YN.JFN2. 5.2378
YN.JFN3. 5.53737
YN.JFN4. 5.39214
YN.JFS1. 5.48243
YN.JFS2. 5.77454
YN.JFS3. 5.40913
YN.JFS4. 5.33361
YN.PRAN. 6.74042
YN.RHIL. 4.92634
YN.SFTR. 7.055
YN.TFRD. 2.66395
YN.TR01. 6.04927
YN.TR02. 5.98756
YN.TR03. 5.58578
YN.TR04. 5.6697
YN.WRDG. 6.39312
YT.BEAR. 5.08915
YT.BENN. 3.34081
YT.BYRD. 3.45613
YT.CLRK. 3.25247
YT.DEVL. 3.35577
YT.DNTW. 4.14496
YT.DUFK. 3.77982
YT.FALL. 4.13121
YT.FISH. 5.24371
YT.HOWD. 4.58206
YT.KOLR. 4.2512
YT.LONW. 6.93719
YT.MECK. 3.60539
YT.MILR. 7.45252
YT.MPAT. 4.26478
YT.P061. 2.65523
YT.PECA. 5.34691
YT.SILY. 5.01061
YT.SIPL. 3.22671
YT.SURP. 1.55339
YT.THUR. 3.44826
YT.UNGL. 1.44145
YT.UPTW. 4.35726
YT.WAIS. 3.33017
YT.WHIT. 3.3388
YU.EMR.01 12.293
YU.MCD.01 10.0676
YU.PLA.01 13.3222
YU.WHR.01 11.7129
